   [Mon Feb 07 09:14:29.539374 2022]
   [php:notice]
   [pid 691]
   [client xxx.xxx.xxx.xxx:53696]

   Array\n(\n
   ... einige Werte ...
   ... und dann:

   [os] => UNIX\n

   ... weitere Werte...
