<!--
#.. pikchr-Source:

   
   $linerad = 10px
   $linewid *= 0.5
   $lineh = 0.75
	   #circle radius 10%
      SE:  box "SELECT" fill gold color black fit
	   arrow
      OT:  oval "Attribut" fit
      CM2: oval "," bold fit at OT.ht*1.25 below OT
	   arrow from OT.e right $linerad then down even with CM2 then to CM2.e
	   line from CM2.w left even with 2*arrowht left of OT.w \
	      then up even with OT then to arrowht left of OT.w
	   line  from OT.end  right
	   #arrow then down 
	  line  from OT.end  right 2*arrowht
	  line right then down $lineh*.75 then left even with SE.w 
      L1: line left then down $lineh*.5

   # Ebene 2
      FR:  box "FROM" fill gold color black fit \
	   same as SE at SE-(0,$lineh*1.25)
	   arrow right from L1.end to FR.w
	   arrow from FR.e 
      T1:  oval "Tabellenname" fit
	   #line right
   # Ebne 3
	  line right then down $lineh*.5 then left even with SE.w 
      L2: line left then down $lineh*.5  
      WR:  box "WHERE" fill gold color black fit \
	   same as FR at FR-(0,$lineh)
	   arrow right from L2.end to WR.start
	   arrow from WR.e
      A1:  oval "Attribut" fit
           oval "NOT" fit fill gold color black
	   oval "BETWEEN" fit fill gold color black
	   oval "Start-Wert" fit
           oval "AND" fill gold color black fit
	   oval "End-Wert" fit
	   oval ";" fill gold color black fit

-->
<svg xmlns='http://www.w3.org/2000/svg' viewBox="0 0 734.861 277.56">
<path d="M74.16,32.4L155.606,32.4L155.606,2.16L74.16,2.16Z"  style="fill:rgb(255,215,0);stroke-width:2.16;stroke:rgb(0,0,0);" />
<text x="114.883" y="17.28" text-anchor="middle" fill="rgb(0,0,0)" dominant-baseline="central">SELECT</text>
<polygon points="227.606,17.28 216.086,21.6 216.086,12.96" style="fill:rgb(0,0,0)"/>
<path d="M155.606,17.28L221.846,17.28"  style="fill:none;stroke-width:2.16;stroke:rgb(0,0,0);" />
<path d="M242.726,32.4L290.362,32.4A15.12 15.12 0 0 0 305.482 17.28A15.12 15.12 0 0 0 290.362 2.16L242.726,2.16A15.12 15.12 0 0 0 227.606 17.28A15.12 15.12 0 0 0 242.726 32.4Z"  style="fill:none;stroke-width:2.16;stroke:rgb(0,0,0);" />
<text x="266.544" y="17.28" text-anchor="middle" fill="rgb(0,0,0)" dominant-baseline="central">Attribut</text>
<path d="M266.544,70.2A15.12 15.12 0 0 0 281.664 55.08L281.664,55.08A15.12 15.12 0 0 0 266.544 39.96A15.12 15.12 0 0 0 251.424 55.08L251.424,55.08A15.12 15.12 0 0 0 266.544 70.2Z"  style="fill:none;stroke-width:2.16;stroke:rgb(0,0,0);" />
<text x="266.544" y="55.08" text-anchor="middle" font-weight="bold" fill="rgb(0,0,0)" dominant-baseline="central">,</text>
<polygon points="281.664,55.08 293.184,50.76 293.184,59.4" style="fill:rgb(0,0,0)"/>
<path d="M305.482,17.28L320.482,17.28L320.482,55.08L287.424,55.08"  style="fill:none;stroke-width:2.16;stroke-linejoin:round;stroke:rgb(0,0,0);" />
<path d="M251.424,55.08L204.566,55.08L204.566,17.28L216.086,17.28"  style="fill:none;stroke-width:2.16;stroke-linejoin:round;stroke:rgb(0,0,0);" />
<path d="M305.482,17.28L377.482,17.28"  style="fill:none;stroke-width:2.16;stroke:rgb(0,0,0);" />
<path d="M305.482,17.28L328.522,17.28"  style="fill:none;stroke-width:2.16;stroke:rgb(0,0,0);" />
<path d="M328.522,17.28L400.522,17.28L400.522,98.28L74.16,98.28"  style="fill:none;stroke-width:2.16;stroke-linejoin:round;stroke:rgb(0,0,0);" />
<path d="M74.16,98.28L2.16,98.28L2.16,152.28"  style="fill:none;stroke-width:2.16;stroke-linejoin:round;stroke:rgb(0,0,0);" />
<path d="M74.16,167.4L155.606,167.4L155.606,137.16L74.16,137.16Z"  style="fill:rgb(255,215,0);stroke-width:2.16;stroke:rgb(0,0,0);" />
<text x="114.883" y="152.28" text-anchor="middle" fill="rgb(0,0,0)" dominant-baseline="central">FROM</text>
<polygon points="74.16,152.28 74.16,147.96 74.16,156.6" style="fill:rgb(0,0,0)"/>
<path d="M2.16,152.28L74.16,152.28L74.16,152.28"  style="fill:none;stroke-width:2.16;stroke-linejoin:round;stroke:rgb(0,0,0);" />
<polygon points="227.606,152.28 216.086,156.6 216.086,147.96" style="fill:rgb(0,0,0)"/>
<path d="M155.606,152.28L221.846,152.28"  style="fill:none;stroke-width:2.16;stroke:rgb(0,0,0);" />
<path d="M242.726,167.4L342.778,167.4A15.12 15.12 0 0 0 357.898 152.28A15.12 15.12 0 0 0 342.778 137.16L242.726,137.16A15.12 15.12 0 0 0 227.606 152.28A15.12 15.12 0 0 0 242.726 167.4Z"  style="fill:none;stroke-width:2.16;stroke:rgb(0,0,0);" />
<text x="292.752" y="152.28" text-anchor="middle" fill="rgb(0,0,0)" dominant-baseline="central">Tabellenname</text>
<path d="M357.898,152.28L429.898,152.28L429.898,206.28L74.16,206.28"  style="fill:none;stroke-width:2.16;stroke-linejoin:round;stroke:rgb(0,0,0);" />
<path d="M74.16,206.28L2.16,206.28L2.16,260.28"  style="fill:none;stroke-width:2.16;stroke-linejoin:round;stroke:rgb(0,0,0);" />
<path d="M74.16,275.4L155.606,275.4L155.606,245.16L74.16,245.16Z"  style="fill:rgb(255,215,0);stroke-width:2.16;stroke:rgb(0,0,0);" />
<text x="114.883" y="260.28" text-anchor="middle" fill="rgb(0,0,0)" dominant-baseline="central">WHERE</text>
<polygon points="74.16,260.28 74.16,255.96 74.16,264.6" style="fill:rgb(0,0,0)"/>
<path d="M2.16,260.28L74.16,260.28L74.16,260.28"  style="fill:none;stroke-width:2.16;stroke-linejoin:round;stroke:rgb(0,0,0);" />
<polygon points="227.606,260.28 216.086,264.6 216.086,255.96" style="fill:rgb(0,0,0)"/>
<path d="M155.606,260.28L221.846,260.28"  style="fill:none;stroke-width:2.16;stroke:rgb(0,0,0);" />
<path d="M242.726,275.4L290.362,275.4A15.12 15.12 0 0 0 305.482 260.28A15.12 15.12 0 0 0 290.362 245.16L242.726,245.16A15.12 15.12 0 0 0 227.606 260.28A15.12 15.12 0 0 0 242.726 275.4Z"  style="fill:none;stroke-width:2.16;stroke:rgb(0,0,0);" />
<text x="266.544" y="260.28" text-anchor="middle" fill="rgb(0,0,0)" dominant-baseline="central">Attribut</text>
<path d="M320.602,275.4L340.704,275.4A15.12 15.12 0 0 0 355.824 260.28A15.12 15.12 0 0 0 340.704 245.16L320.602,245.16A15.12 15.12 0 0 0 305.482 260.28A15.12 15.12 0 0 0 320.602 275.4Z"  style="fill:rgb(255,215,0);stroke-width:2.16;stroke:rgb(0,0,0);" />
<text x="330.653" y="260.28" text-anchor="middle" fill="rgb(0,0,0)" dominant-baseline="central">NOT</text>
<path d="M370.944,275.4L443.462,275.4A15.12 15.12 0 0 0 458.582 260.28A15.12 15.12 0 0 0 443.462 245.16L370.944,245.16A15.12 15.12 0 0 0 355.824 260.28A15.12 15.12 0 0 0 370.944 275.4Z"  style="fill:rgb(255,215,0);stroke-width:2.16;stroke:rgb(0,0,0);" />
<text x="407.203" y="260.28" text-anchor="middle" fill="rgb(0,0,0)" dominant-baseline="central">BETWEEN</text>
<path d="M473.702,275.4L544.378,275.4A15.12 15.12 0 0 0 559.498 260.28A15.12 15.12 0 0 0 544.378 245.16L473.702,245.16A15.12 15.12 0 0 0 458.582 260.28A15.12 15.12 0 0 0 473.702 275.4Z"  style="fill:none;stroke-width:2.16;stroke:rgb(0,0,0);" />
<text x="509.04" y="260.28" text-anchor="middle" fill="rgb(0,0,0)" dominant-baseline="central">Start-Wert</text>
<path d="M574.618,275.4L595.296,275.4A15.12 15.12 0 0 0 610.416 260.28A15.12 15.12 0 0 0 595.296 245.16L574.618,245.16A15.12 15.12 0 0 0 559.498 260.28A15.12 15.12 0 0 0 574.618 275.4Z"  style="fill:rgb(255,215,0);stroke-width:2.16;stroke:rgb(0,0,0);" />
<text x="584.957" y="260.28" text-anchor="middle" fill="rgb(0,0,0)" dominant-baseline="central">AND</text>
<path d="M625.536,275.4L687.341,275.4A15.12 15.12 0 0 0 702.461 260.28A15.12 15.12 0 0 0 687.341 245.16L625.536,245.16A15.12 15.12 0 0 0 610.416 260.28A15.12 15.12 0 0 0 625.536 275.4Z"  style="fill:none;stroke-width:2.16;stroke:rgb(0,0,0);" />
<text x="656.438" y="260.28" text-anchor="middle" fill="rgb(0,0,0)" dominant-baseline="central">End-Wert</text>
<path d="M717.581,275.4A15.12 15.12 0 0 0 732.701 260.28A15.12 15.12 0 0 0 717.581 245.16A15.12 15.12 0 0 0 702.461 260.28A15.12 15.12 0 0 0 717.581 275.4Z"  style="fill:rgb(255,215,0);stroke-width:2.16;stroke:rgb(0,0,0);" />
<text x="717.581" y="260.28" text-anchor="middle" fill="rgb(0,0,0)" dominant-baseline="central">;</text>
</svg>
