<!--

linerad = 10px
linewid *= 0.5
$lineh = 0.75

SE:  box "SELECT" fill gold color black fit
     arrow
OT:  oval "Attribut" fit
     arrow
     oval "AS" fit
     arrow
NB:  oval "\"Neuer Bezeichner\"" fit


CM2: oval "," bold fit at OT.ht*1.25 below OT
     arrow from NB.e right linerad then down even with CM2 then to CM2.e
     line from CM2.w left even with 2*arrowht left of OT.w \
     then up even with OT then to arrowht left of OT.w
     arrow  from NB.end  right

     # Linie zurück und auf neue Ebene
     line right then down $lineh*.6 then left even with SE.w 
     line left then down $lineh*.4 then right  


FR:  box "FROM" fill gold color black fit \
     same as SE at SE-(0,$lineh)
     arrow from FR.end

T1:  oval "Tabellenname" fit
     oval ";"  fill gold color black fit
-->

<svg xmlns='http://www.w3.org/2000/svg' viewBox="0 0 591.379 142.56">
<path d="M38.16,32.4L119.606,32.4L119.606,2.16L38.16,2.16Z"  style="fill:rgb(255,215,0);stroke-width:2.16;stroke:rgb(0,0,0);" />
<text x="78.8832" y="17.28" text-anchor="middle" fill="rgb(0,0,0)" dominant-baseline="central">SELECT</text>
<polygon points="155.606,17.28 144.086,21.6 144.086,12.96" style="fill:rgb(0,0,0)"/>
<path d="M119.606,17.28L149.846,17.28"  style="fill:none;stroke-width:2.16;stroke:rgb(0,0,0);" />
<path d="M170.726,32.4L218.362,32.4A15.12 15.12 0 0 0 233.482 17.28A15.12 15.12 0 0 0 218.362 2.16L170.726,2.16A15.12 15.12 0 0 0 155.606 17.28A15.12 15.12 0 0 0 170.726 32.4Z"  style="fill:none;stroke-width:2.16;stroke:rgb(0,0,0);" />
<text x="194.544" y="17.28" text-anchor="middle" fill="rgb(0,0,0)" dominant-baseline="central">Attribut</text>
<polygon points="269.482,17.28 257.962,21.6 257.962,12.96" style="fill:rgb(0,0,0)"/>
<path d="M233.482,17.28L263.722,17.28"  style="fill:none;stroke-width:2.16;stroke:rgb(0,0,0);" />
<path d="M284.602,32.4L288.576,32.4A15.12 15.12 0 0 0 303.696 17.28A15.12 15.12 0 0 0 288.576 2.16L284.602,2.16A15.12 15.12 0 0 0 269.482 17.28A15.12 15.12 0 0 0 284.602 32.4Z"  style="fill:none;stroke-width:2.16;stroke:rgb(0,0,0);" />
<text x="286.589" y="17.28" text-anchor="middle" fill="rgb(0,0,0)" dominant-baseline="central">AS</text>
<polygon points="339.696,17.28 328.176,21.6 328.176,12.96" style="fill:rgb(0,0,0)"/>
<path d="M303.696,17.28L333.936,17.28"  style="fill:none;stroke-width:2.16;stroke:rgb(0,0,0);" />
<path d="M354.816,32.4L502.099,32.4A15.12 15.12 0 0 0 517.219 17.28A15.12 15.12 0 0 0 502.099 2.16L354.816,2.16A15.12 15.12 0 0 0 339.696 17.28A15.12 15.12 0 0 0 354.816 32.4Z"  style="fill:none;stroke-width:2.16;stroke:rgb(0,0,0);" />
<text x="428.458" y="17.28" text-anchor="middle" fill="rgb(0,0,0)" dominant-baseline="central">"Neuer Bezeichner"</text>
<path d="M194.544,70.2A15.12 15.12 0 0 0 209.664 55.08L209.664,55.08A15.12 15.12 0 0 0 194.544 39.96A15.12 15.12 0 0 0 179.424 55.08L179.424,55.08A15.12 15.12 0 0 0 194.544 70.2Z"  style="fill:none;stroke-width:2.16;stroke:rgb(0,0,0);" />
<text x="194.544" y="55.08" text-anchor="middle" font-weight="bold" fill="rgb(0,0,0)" dominant-baseline="central">,</text>
<polygon points="209.664,55.08 221.184,50.76 221.184,59.4" style="fill:rgb(0,0,0)"/>
<path d="M517.219,17.28 L 524.719,17.28 Q 532.219,17.28 532.219,32.28 L 532.219,40.08 Q 532.219,55.08 517.219,55.08 L 230.424,55.08 L 215.424,55.08"  style="fill:none;stroke-width:2.16;stroke:rgb(0,0,0);" />
<path d="M179.424,55.08 L 147.566,55.08 Q 132.566,55.08 132.566,40.08 L 132.566,32.28 Q 132.566,17.28 138.326,17.28 L 144.086,17.28"  style="fill:none;stroke-width:2.16;stroke:rgb(0,0,0);" />
<polygon points="553.219,17.28 541.699,21.6 541.699,12.96" style="fill:rgb(0,0,0)"/>
<path d="M517.219,17.28L547.459,17.28"  style="fill:none;stroke-width:2.16;stroke:rgb(0,0,0);" />
<path d="M553.219,17.28 L 574.219,17.28 Q 589.219,17.28 589.219,32.28 L 589.219,67.08 Q 589.219,82.08 574.219,82.08 L 53.16,82.08 L 38.16,82.08"  style="fill:none;stroke-width:2.16;stroke:rgb(0,0,0);" />
<path d="M38.16,82.08 L 17.16,82.08 Q 2.16,82.08 2.16,97.08 L 2.16,110.28 Q 2.16,125.28 17.16,125.28 L 23.16,125.28 L 38.16,125.28"  style="fill:none;stroke-width:2.16;stroke:rgb(0,0,0);" />
<path d="M38.16,140.4L119.606,140.4L119.606,110.16L38.16,110.16Z"  style="fill:rgb(255,215,0);stroke-width:2.16;stroke:rgb(0,0,0);" />
<text x="78.8832" y="125.28" text-anchor="middle" fill="rgb(0,0,0)" dominant-baseline="central">FROM</text>
<polygon points="155.606,125.28 144.086,129.6 144.086,120.96" style="fill:rgb(0,0,0)"/>
<path d="M119.606,125.28L149.846,125.28"  style="fill:none;stroke-width:2.16;stroke:rgb(0,0,0);" />
<path d="M170.726,140.4L270.778,140.4A15.12 15.12 0 0 0 285.898 125.28A15.12 15.12 0 0 0 270.778 110.16L170.726,110.16A15.12 15.12 0 0 0 155.606 125.28A15.12 15.12 0 0 0 170.726 140.4Z"  style="fill:none;stroke-width:2.16;stroke:rgb(0,0,0);" />
<text x="220.752" y="125.28" text-anchor="middle" fill="rgb(0,0,0)" dominant-baseline="central">Tabellenname</text>
<path d="M301.018,140.4A15.12 15.12 0 0 0 316.138 125.28A15.12 15.12 0 0 0 301.018 110.16A15.12 15.12 0 0 0 285.898 125.28A15.12 15.12 0 0 0 301.018 140.4Z"  style="fill:rgb(255,215,0);stroke-width:2.16;stroke:rgb(0,0,0);" />
<text x="301.018" y="125.28" text-anchor="middle" fill="rgb(0,0,0)" dominant-baseline="central">;</text>
</svg>
