

<!--
gerendert auf:https://pikchr.org/home/pikchrshow

#.. pikchr-Source:

linerad = 10px
	linewid *= 0.5

	#circle radius 10%
   SE:  box "SELECT" fill gold color black fit
	arrow
   OT:  oval "*" fit
	arrow  from OT.end  right
   FR:  box "FROM" fill gold color black fit
	arrow
   OT:  oval "Tabellenname" fit
        oval ";" fill gold color black fit

-->

<svg xmlns='http://www.w3.org/2000/svg' viewBox="0 0 449.626 34.56">
<path d="M2.16,32.4L83.6064,32.4L83.6064,2.16L2.16,2.16Z"  style="fill:rgb(255,215,0);stroke-width:2.16;stroke:rgb(0,0,0);" />
<text x="42.8832" y="17.28" text-anchor="middle" fill="rgb(0,0,0)" dominant-baseline="central">SELECT</text>
<polygon points="119.606,17.28 108.086,21.6 108.086,12.96" style="fill:rgb(0,0,0)"/>
<path d="M83.6064,17.28L113.846,17.28"  style="fill:none;stroke-width:2.16;stroke:rgb(0,0,0);" />
<path d="M134.726,32.4A15.12 15.12 0 0 0 149.846 17.28A15.12 15.12 0 0 0 134.726 2.16A15.12 15.12 0 0 0 119.606 17.28A15.12 15.12 0 0 0 134.726 32.4Z"  style="fill:none;stroke-width:2.16;stroke:rgb(0,0,0);" />
<text x="134.726" y="17.28" text-anchor="middle" fill="rgb(0,0,0)" dominant-baseline="central">*</text>
<polygon points="185.846,17.28 174.326,21.6 174.326,12.96" style="fill:rgb(0,0,0)"/>
<path d="M149.846,17.28L180.086,17.28"  style="fill:none;stroke-width:2.16;stroke:rgb(0,0,0);" />
<path d="M185.846,32.4L250.934,32.4L250.934,2.16L185.846,2.16Z"  style="fill:rgb(255,215,0);stroke-width:2.16;stroke:rgb(0,0,0);" />
<text x="218.39" y="17.28" text-anchor="middle" fill="rgb(0,0,0)" dominant-baseline="central">FROM</text>
<polygon points="286.934,17.28 275.414,21.6 275.414,12.96" style="fill:rgb(0,0,0)"/>
<path d="M250.934,17.28L281.174,17.28"  style="fill:none;stroke-width:2.16;stroke:rgb(0,0,0);" />
<path d="M302.054,32.4L402.106,32.4A15.12 15.12 0 0 0 417.226 17.28A15.12 15.12 0 0 0 402.106 2.16L302.054,2.16A15.12 15.12 0 0 0 286.934 17.28A15.12 15.12 0 0 0 302.054 32.4Z"  style="fill:none;stroke-width:2.16;stroke:rgb(0,0,0);" />
<text x="352.08" y="17.28" text-anchor="middle" fill="rgb(0,0,0)" dominant-baseline="central">Tabellenname</text>
<path d="M432.346,32.4A15.12 15.12 0 0 0 447.466 17.28A15.12 15.12 0 0 0 432.346 2.16A15.12 15.12 0 0 0 417.226 17.28A15.12 15.12 0 0 0 432.346 32.4Z"  style="fill:rgb(255,215,0);stroke-width:2.16;stroke:rgb(0,0,0);" />
<text x="432.346" y="17.28" text-anchor="middle" fill="rgb(0,0,0)" dominant-baseline="central">;</text>
</svg>
